D:\orisoft-projects\orisoft-unify-automation\src\main\java\com\auto\orisoft\util\LoggerUtils.java
D:\orisoft-projects\orisoft-unify-automation\src\main\java\com\auto\orisoft\listener\RerunFailedTestCases.java
D:\orisoft-projects\orisoft-unify-automation\src\main\java\com\auto\orisoft\util\Webdriverutility.java
D:\orisoft-projects\orisoft-unify-automation\src\main\java\com\auto\orisoft\listener\ExtentManager.java
D:\orisoft-projects\orisoft-unify-automation\src\main\java\com\auto\orisoft\listener\ExtentReportListener.java
D:\orisoft-projects\orisoft-unify-automation\src\main\java\com\auto\orisoft\util\WaitHelperUtil.java
D:\orisoft-projects\orisoft-unify-automation\src\main\java\com\auto\orisoft\util\PropertyUtils.java
D:\orisoft-projects\orisoft-unify-automation\src\main\java\com\auto\orisoft\util\UtilClass.java
D:\orisoft-projects\orisoft-unify-automation\src\main\java\com\auto\orisoft\util\ConfigReader.java
D:\orisoft-projects\orisoft-unify-automation\src\main\java\com\auto\orisoft\base\TestBase.java
